^C:\PROJECTS\UNITTEST\DEBUG\AUTOMATAC.LIB|C:\PROJECTS\UNITTEST\DEBUG\GTEST.LIB|C:\PROJECTS\UNITTEST\UNITTEST\DEBUG\STDAFX.OBJ|C:\PROJECTS\UNITTEST\UNITTEST\DEBUG\UNITTEST.OBJ
C:\PROJECTS\UNITTEST\DEBUG\UNITTEST.ILK
C:\PROJECTS\UNITTEST\DEBUG\UNITTEST.EXE
C:\PROJECTS\UNITTEST\DEBUG\UNITTEST.PDB
