^C:\PROJECTS\AUTOMATAC\AUTOMATAC\AUTOMATAC.C
C:\PROJECTS\AUTOMATAC\AUTOMATAC\DEBUG\VC140.PDB
C:\PROJECTS\AUTOMATAC\AUTOMATAC\DEBUG\VC140.IDB
C:\PROJECTS\AUTOMATAC\AUTOMATAC\DEBUG\AUTOMATAC.OBJ
C:\PROJECTS\AUTOMATAC\AUTOMATAC\DEBUG\AUTOMATAC.PDB
C:\PROJECTS\AUTOMATAC\AUTOMATAC\DEBUG\AUTOMATAC.IDB
^C:\PROJECTS\AUTOMATAC\AUTOMATAC\STDAFX.CPP
C:\PROJECTS\AUTOMATAC\AUTOMATAC\DEBUG\VC140.PDB
C:\PROJECTS\AUTOMATAC\AUTOMATAC\DEBUG\VC140.IDB
C:\PROJECTS\AUTOMATAC\AUTOMATAC\DEBUG\STDAFX.OBJ
C:\PROJECTS\AUTOMATAC\AUTOMATAC\DEBUG\AUTOMATAC.PDB
C:\PROJECTS\AUTOMATAC\AUTOMATAC\DEBUG\AUTOMATAC.IDB
