^C:\PROJECTS\AUTOMATAC\AUTOMATAC\AUTOMATAC.C
C:\PROJECTS\AUTOMATAC\AUTOMATAC\X64\DEBUG\VC140.PDB
C:\PROJECTS\AUTOMATAC\AUTOMATAC\X64\DEBUG\VC140.IDB
C:\PROJECTS\AUTOMATAC\AUTOMATAC\X64\DEBUG\AUTOMATAC.OBJ
^C:\PROJECTS\AUTOMATAC\AUTOMATAC\STDAFX.CPP
C:\PROJECTS\AUTOMATAC\AUTOMATAC\X64\DEBUG\VC140.PDB
C:\PROJECTS\AUTOMATAC\AUTOMATAC\X64\DEBUG\VC140.IDB
C:\PROJECTS\AUTOMATAC\AUTOMATAC\X64\DEBUG\STDAFX.OBJ
