^C:\USERS\하이닉스\DOCUMENTS\VISUAL STUDIO 2015\PROJECTS\GOOGLETEST\GOOGLETEST\STDAFX.CPP
C:\USERS\하이닉스\DOCUMENTS\VISUAL STUDIO 2015\PROJECTS\GOOGLETEST\GOOGLETEST\DEBUG\GOOGLETEST.PCH
C:\USERS\하이닉스\DOCUMENTS\VISUAL STUDIO 2015\PROJECTS\GOOGLETEST\GOOGLETEST\DEBUG\GOOGLETEST.PDB
C:\USERS\하이닉스\DOCUMENTS\VISUAL STUDIO 2015\PROJECTS\GOOGLETEST\GOOGLETEST\DEBUG\GOOGLETEST.IDB
C:\USERS\하이닉스\DOCUMENTS\VISUAL STUDIO 2015\PROJECTS\GOOGLETEST\GOOGLETEST\DEBUG\STDAFX.OBJ
^C:\USERS\하이닉스\DESKTOP\GOOGLETEST-MASTER\GOOGLETEST\SRC\GTEST-ALL.CC|C:\USERS\하이닉스\DESKTOP\GOOGLETEST-MASTER\GOOGLETEST\SRC\GTEST-DEATH-TEST.CC|C:\USERS\하이닉스\DESKTOP\GOOGLETEST-MASTER\GOOGLETEST\SRC\GTEST-FILEPATH.CC|C:\USERS\하이닉스\DESKTOP\GOOGLETEST-MASTER\GOOGLETEST\SRC\GTEST-PORT.CC|C:\USERS\하이닉스\DESKTOP\GOOGLETEST-MASTER\GOOGLETEST\SRC\GTEST-PRINTERS.CC|C:\USERS\하이닉스\DESKTOP\GOOGLETEST-MASTER\GOOGLETEST\SRC\GTEST-TEST-PART.CC|C:\USERS\하이닉스\DESKTOP\GOOGLETEST-MASTER\GOOGLETEST\SRC\GTEST-TYPED-TEST.CC|C:\USERS\하이닉스\DESKTOP\GOOGLETEST-MASTER\GOOGLETEST\SRC\GTEST.CC|C:\USERS\하이닉스\DESKTOP\GOOGLETEST-MASTER\GOOGLETEST\SRC\GTEST_MAIN.CC
^C:\USERS\하이닉스\DESKTOP\GOOGLETEST-MASTER\GOOGLETEST\SRC\GTEST-ALL.CC
C:\USERS\하이닉스\DOCUMENTS\VISUAL STUDIO 2015\PROJECTS\GOOGLETEST\GOOGLETEST\DEBUG\GOOGLETEST.PDB
^C:\USERS\하이닉스\DESKTOP\GOOGLETEST-MASTER\GOOGLETEST\SRC\GTEST-DEATH-TEST.CC
C:\USERS\하이닉스\DOCUMENTS\VISUAL STUDIO 2015\PROJECTS\GOOGLETEST\GOOGLETEST\DEBUG\GOOGLETEST.PDB
^C:\USERS\하이닉스\DESKTOP\GOOGLETEST-MASTER\GOOGLETEST\SRC\GTEST-FILEPATH.CC
C:\USERS\하이닉스\DOCUMENTS\VISUAL STUDIO 2015\PROJECTS\GOOGLETEST\GOOGLETEST\DEBUG\GOOGLETEST.PDB
^C:\USERS\하이닉스\DESKTOP\GOOGLETEST-MASTER\GOOGLETEST\SRC\GTEST-PORT.CC
C:\USERS\하이닉스\DOCUMENTS\VISUAL STUDIO 2015\PROJECTS\GOOGLETEST\GOOGLETEST\DEBUG\GOOGLETEST.PDB
^C:\USERS\하이닉스\DESKTOP\GOOGLETEST-MASTER\GOOGLETEST\SRC\GTEST-PRINTERS.CC
C:\USERS\하이닉스\DOCUMENTS\VISUAL STUDIO 2015\PROJECTS\GOOGLETEST\GOOGLETEST\DEBUG\GOOGLETEST.PDB
^C:\USERS\하이닉스\DESKTOP\GOOGLETEST-MASTER\GOOGLETEST\SRC\GTEST-TEST-PART.CC
C:\USERS\하이닉스\DOCUMENTS\VISUAL STUDIO 2015\PROJECTS\GOOGLETEST\GOOGLETEST\DEBUG\GOOGLETEST.PDB
^C:\USERS\하이닉스\DESKTOP\GOOGLETEST-MASTER\GOOGLETEST\SRC\GTEST-TYPED-TEST.CC
C:\USERS\하이닉스\DOCUMENTS\VISUAL STUDIO 2015\PROJECTS\GOOGLETEST\GOOGLETEST\DEBUG\GOOGLETEST.PDB
^C:\USERS\하이닉스\DESKTOP\GOOGLETEST-MASTER\GOOGLETEST\SRC\GTEST.CC
C:\USERS\하이닉스\DOCUMENTS\VISUAL STUDIO 2015\PROJECTS\GOOGLETEST\GOOGLETEST\DEBUG\GOOGLETEST.PDB
^C:\USERS\하이닉스\DESKTOP\GOOGLETEST-MASTER\GOOGLETEST\SRC\GTEST_MAIN.CC
C:\USERS\하이닉스\DOCUMENTS\VISUAL STUDIO 2015\PROJECTS\GOOGLETEST\GOOGLETEST\DEBUG\GOOGLETEST.PDB
